{
    "agents_behaviors": [
        {
            "agent_name": "robot_01", 
            "behavior": {
                "name": "wu_levihn_2014_behavior", 
                "navigation_goals": [
                    {
                        "name": "goal_01"
                    }
                ], 
                "parameters": {
                    "check_new_opening_activated": true, 
                    "manip_weight": 2.0, 
                    "reset_knowledge_activated": false, 
                    "social_movability_evaluation_activated": false, 
                    "social_placement_choice_activated": false, 
                    "use_social_layer": false
                }
            }
        }
    ], 
    "display_sim_knowledge_only_once": false, 
    "files": {
        "world_file": "../../../worlds/moghaddam_planning_2016_benchmark/01/01.json"
    }, 
    "provide_walls": true
}