<?xml version="1.0" encoding="UTF-8" standalone="no"?>
<svg
   xmlns:dc="http://purl.org/dc/elements/1.1/"
   xmlns:cc="http://creativecommons.org/ns#"
   xmlns:rdf="http://www.w3.org/1999/02/22-rdf-syntax-ns#"
   xmlns:svg="http://www.w3.org/2000/svg"
   xmlns="http://www.w3.org/2000/svg"
   xmlns:sodipodi="http://sodipodi.sourceforge.net/DTD/sodipodi-0.dtd"
   xmlns:inkscape="http://www.inkscape.org/namespaces/inkscape"
   version="1.1"
   viewBox="0 0 336.48285 334.25473"
   stroke-miterlimit="10"
   id="svg2"
   inkscape:version="0.92.5 (0.92.5+68)"
   sodipodi:docname="04_after_the_feast_complexified_4_robots.svg"
   width="358.91504"
   height="356.53839"
   style="fill:none;stroke:none;stroke-linecap:square;stroke-miterlimit:10"
   inkscape:export-filename="/home/xia0ben/INRIA/Code/s-namo-sim/data/worlds/s-namo_cases/04_after_the_feast/04_after_the_feast.svg.png"
   inkscape:export-xdpi="600"
   inkscape:export-ydpi="600">
  <metadata
     id="metadata99">
    <rdf:RDF>
      <cc:Work
         rdf:about="">
        <dc:format>image/svg+xml</dc:format>
        <dc:type
           rdf:resource="http://purl.org/dc/dcmitype/StillImage" />
        <dc:title />
      </cc:Work>
    </rdf:RDF>
  </metadata>
  <defs
     id="defs97" />
  <sodipodi:namedview
     pagecolor="#ffffff"
     bordercolor="#666666"
     borderopacity="1"
     objecttolerance="10"
     gridtolerance="10"
     guidetolerance="10"
     inkscape:pageopacity="0"
     inkscape:pageshadow="2"
     inkscape:window-width="640"
     inkscape:window-height="480"
     id="namedview95"
     showgrid="false"
     inkscape:zoom="2.0000001"
     inkscape:cx="88.023728"
     inkscape:cy="162.8802"
     inkscape:current-layer="svg2"
     fit-margin-top="0"
     fit-margin-left="0"
     fit-margin-right="0"
     fit-margin-bottom="0" />
  <path
     inkscape:label="#path39"
     style="fill:#000000;fill-rule:evenodd"
     inkscape:connector-curvature="0"
     id="table_01"
     d="m 66.799582,69.975113 v 0 c 0,-2.446398 1.983204,-4.429593 4.429593,-4.429593 h 17.717841 v 0 c 1.174797,0 2.301467,0.466695 3.132185,1.297404 0.8307,0.8307 1.297386,1.957383 1.297386,3.132189 v 17.717823 c 0,2.446407 -1.983177,4.429593 -4.429571,4.429593 H 71.229175 c -2.446389,0 -4.429593,-1.983186 -4.429593,-4.429593 z" />
  <path
     inkscape:label="#path21"
     style="fill:#000000;fill-rule:evenodd"
     inkscape:connector-curvature="0"
     id="table_02"
     d="m 125.55965,69.975113 v 0 c 0,-2.446398 1.9832,-4.429593 4.42958,-4.429593 h 17.71782 v 0 c 1.17482,0 2.3015,0.466695 3.13221,1.297404 0.8307,0.8307 1.29739,1.957383 1.29739,3.132189 v 17.717823 c 0,2.446407 -1.98319,4.429593 -4.4296,4.429593 h -17.71782 c -2.44638,0 -4.42958,-1.983186 -4.42958,-4.429593 z" />
  <path
     inkscape:label="#path23"
     style="fill:#000000;fill-rule:evenodd"
     inkscape:connector-curvature="0"
     id="table_03"
     d="m 184.3197,69.975113 v 0 c 0,-2.446398 1.98318,-4.429593 4.42957,-4.429593 h 17.71786 v 0 c 1.17478,0 2.30147,0.466695 3.13216,1.297404 0.8307,0.8307 1.29739,1.957383 1.29739,3.132189 v 17.717823 c 0,2.446407 -1.98318,4.429593 -4.42955,4.429593 h -17.71786 c -2.44639,0 -4.42957,-1.983186 -4.42957,-4.429593 z" />
  <path
     inkscape:label="#path29"
     style="fill:#000000;fill-rule:evenodd"
     inkscape:connector-curvature="0"
     id="table_04"
     d="m 243.07976,69.975113 v 0 c 0,-2.446398 1.98319,-4.429593 4.4296,-4.429593 h 17.7178 v 0 c 1.17481,0 2.3015,0.466695 3.1322,1.297404 0.8307,0.8307 1.29739,1.957383 1.29739,3.132189 v 17.717823 c 0,2.446407 -1.98319,4.429593 -4.42959,4.429593 h -17.7178 c -2.44641,0 -4.4296,-1.983186 -4.4296,-4.429593 z" />
  <path
     inkscape:label="#path41"
     style="fill:#000000;fill-rule:evenodd"
     inkscape:connector-curvature="0"
     id="table_05"
     d="m 88.956839,124.30547 v 0 c 2.446394,0 4.429598,1.98319 4.429598,4.42958 v 17.71782 0 c 0,1.17481 -0.466686,2.3015 -1.297386,3.1322 -0.830718,0.8307 -1.957397,1.29739 -3.132212,1.29739 H 71.239025 c -2.446398,0 -4.429593,-1.98319 -4.429593,-4.42959 v -17.71782 c 0,-2.44639 1.983195,-4.42958 4.429593,-4.42958 z" />
  <path
     inkscape:label="#path25"
     style="fill:#000000;fill-rule:evenodd"
     inkscape:connector-curvature="0"
     id="table_06"
     d="m 147.7169,124.30547 v 0 c 2.44639,0 4.42959,1.98319 4.42959,4.42958 v 17.71782 0 c 0,1.17481 -0.46669,2.3015 -1.29739,3.1322 -0.83071,0.8307 -1.95741,1.29739 -3.1322,1.29739 h -17.71783 c -2.44638,0 -4.42958,-1.98319 -4.42958,-4.42959 v -17.71782 c 0,-2.44639 1.9832,-4.42958 4.42958,-4.42958 z" />
  <path
     inkscape:label="#path27"
     style="fill:#000000;fill-rule:evenodd"
     inkscape:connector-curvature="0"
     id="table_07"
     d="m 206.47696,124.30547 v 0 c 2.44638,0 4.42959,1.98319 4.42959,4.42958 v 17.71782 0 c 0,1.17481 -0.46669,2.3015 -1.29739,3.1322 -0.83073,0.8307 -1.95739,1.29739 -3.1322,1.29739 h -17.71784 c -2.44639,0 -4.42957,-1.98319 -4.42957,-4.42959 v -17.71782 c 0,-2.44639 1.98318,-4.42958 4.42957,-4.42958 z" />
  <path
     inkscape:label="#path31"
     style="fill:#000000;fill-rule:evenodd"
     inkscape:connector-curvature="0"
     id="table_08"
     d="m 265.23702,124.30547 v 0 c 2.44638,0 4.4296,1.98319 4.4296,4.42958 v 17.71782 0 c 0,1.17481 -0.46669,2.3015 -1.29742,3.1322 -0.83071,0.8307 -1.9574,1.29739 -3.13218,1.29739 h -17.71783 c -2.44639,0 -4.4296,-1.98319 -4.4296,-4.42959 v -17.71782 c 0,-2.44639 1.98321,-4.42958 4.4296,-4.42958 z" />
  <path
     inkscape:label="#path43"
     style="fill:#000000;fill-rule:evenodd"
     inkscape:connector-curvature="0"
     id="table_09"
     d="m 88.956839,183.0654 v 0 c 2.446394,0 4.429598,1.9832 4.429598,4.42959 v 17.71782 0 c 0,1.17481 -0.466686,2.3015 -1.297386,3.1322 -0.830718,0.8307 -1.957397,1.29739 -3.132212,1.29739 H 71.239025 c -2.446398,0 -4.429593,-1.98319 -4.429593,-4.42959 v -17.71782 c 0,-2.44639 1.983195,-4.42959 4.429593,-4.42959 z" />
  <path
     inkscape:label="#path33"
     style="fill:#000000;fill-rule:evenodd"
     inkscape:connector-curvature="0"
     id="table_10"
     d="m 147.7169,183.0654 v 0 c 2.44639,0 4.42959,1.9832 4.42959,4.42959 v 17.71782 0 c 0,1.17481 -0.46669,2.3015 -1.29739,3.1322 -0.83071,0.8307 -1.95741,1.29739 -3.1322,1.29739 h -17.71783 c -2.44638,0 -4.42958,-1.98319 -4.42958,-4.42959 v -17.71782 c 0,-2.44639 1.9832,-4.42959 4.42958,-4.42959 z" />
  <path
     inkscape:label="#path35"
     style="fill:#000000;fill-rule:evenodd"
     inkscape:connector-curvature="0"
     id="table_11"
     d="m 206.47696,183.0654 v 0 c 2.44638,0 4.42959,1.9832 4.42959,4.42959 v 17.71782 0 c 0,1.17481 -0.46669,2.3015 -1.29739,3.1322 -0.83073,0.8307 -1.95739,1.29739 -3.1322,1.29739 h -17.71784 c -2.44639,0 -4.42957,-1.98319 -4.42957,-4.42959 v -17.71782 c 0,-2.44639 1.98318,-4.42959 4.42957,-4.42959 z" />
  <path
     inkscape:label="#path37"
     style="fill:#000000;fill-rule:evenodd"
     inkscape:connector-curvature="0"
     id="table_12"
     d="m 265.23702,183.0654 v 0 c 2.44638,0 4.4296,1.9832 4.4296,4.42959 v 17.71782 0 c 0,1.17481 -0.46669,2.3015 -1.29742,3.1322 -0.83071,0.8307 -1.9574,1.29739 -3.13218,1.29739 h -17.71783 c -2.44639,0 -4.4296,-1.98319 -4.4296,-4.42959 v -17.71782 c 0,-2.44639 1.98321,-4.42959 4.4296,-4.42959 z" />
  <path
     inkscape:label="#path51"
     style="fill:#000000;fill-rule:evenodd"
     inkscape:connector-curvature="0"
     id="table_13"
     d="m 88.956839,241.82534 v 0 c 2.446394,0 4.429598,1.98319 4.429598,4.42959 v 17.71783 0 c 0,1.1748 -0.466686,2.30148 -1.297386,3.13219 -0.830718,0.8307 -1.957397,1.29739 -3.132212,1.29739 H 71.239025 c -2.446398,0 -4.429593,-1.98318 -4.429593,-4.42958 v -17.71783 c 0,-2.4464 1.983195,-4.42959 4.429593,-4.42959 z" />
  <path
     inkscape:label="#path45"
     style="fill:#000000;fill-rule:evenodd"
     inkscape:connector-curvature="0"
     id="table_14"
     d="m 147.7169,241.82534 v 0 c 2.44639,0 4.42959,1.98319 4.42959,4.42959 v 17.71783 0 c 0,1.1748 -0.46669,2.30148 -1.29739,3.13219 -0.83071,0.8307 -1.95741,1.29739 -3.1322,1.29739 h -17.71783 c -2.44638,0 -4.42958,-1.98318 -4.42958,-4.42958 v -17.71783 c 0,-2.4464 1.9832,-4.42959 4.42958,-4.42959 z" />
  <path
     inkscape:label="#path47"
     style="fill:#000000;fill-rule:evenodd"
     inkscape:connector-curvature="0"
     id="table_15"
     d="m 206.47696,241.82534 v 0 c 2.44638,0 4.42959,1.98319 4.42959,4.42959 v 17.71783 0 c 0,1.1748 -0.46669,2.30148 -1.29739,3.13219 -0.83073,0.8307 -1.95739,1.29739 -3.1322,1.29739 h -17.71784 c -2.44639,0 -4.42957,-1.98318 -4.42957,-4.42958 v -17.71783 c 0,-2.4464 1.98318,-4.42959 4.42957,-4.42959 z" />
  <path
     inkscape:label="#path49"
     style="fill:#000000;fill-rule:evenodd"
     inkscape:connector-curvature="0"
     id="table_16"
     d="m 265.23702,241.82534 v 0 c 2.44638,0 4.4296,1.98319 4.4296,4.42959 v 17.71783 0 c 0,1.1748 -0.46669,2.30148 -1.29742,3.13219 -0.83071,0.8307 -1.9574,1.29739 -3.13218,1.29739 h -17.71783 c -2.44639,0 -4.4296,-1.98318 -4.4296,-4.42958 v -17.71783 c 0,-2.4464 1.98321,-4.42959 4.4296,-4.42959 z" />
  <path
     style="fill:#f1c232;fill-rule:evenodd"
     inkscape:connector-curvature="0"
     id="stool_01"
     d="m 20.812322,23.36149 h 20.37486 v 20.35402 h -20.37486 z" />
  <path
     style="fill:#f1c232;fill-rule:evenodd"
     inkscape:connector-curvature="0"
     id="stool_02"
     d="m 69.900382,36.42425 h 20.37489 v 20.35401 h -20.37489 z" />
  <path
     style="fill:#f1c232;fill-rule:evenodd"
     inkscape:connector-curvature="0"
     id="stool_03"
     d="m 158.05073,39.91477 h 20.37488 v 20.35401 h -20.37488 z" />
  <path
     style="fill:#f1c232;fill-rule:evenodd"
     inkscape:connector-curvature="0"
     id="stool_04"
     d="m 271.13263,23.78727 h 20.37489 v 20.35401 h -20.37489 z" />
  <path
     style="fill:#f1c232;fill-rule:evenodd"
     inkscape:connector-curvature="0"
     id="stool_05"
     d="m 216.80311,68.65579 h 20.37488 v 20.354 h -20.37488 z" />
  <path
     style="fill:#f1c232;fill-rule:evenodd"
     inkscape:connector-curvature="0"
     id="stool_06"
     d="m 128.66306,98.03575 h 20.37488 v 20.35401 h -20.37488 z" />
  <path
     style="fill:#f1c232;fill-rule:evenodd"
     inkscape:connector-curvature="0"
     id="stool_07"
     d="m 99.291377,127.41689 h 20.374893 v 20.35402 H 99.291377 Z" />
  <path
     style="fill:#f1c232;fill-rule:evenodd;stroke:none;stroke-linecap:square;stroke-miterlimit:10"
     inkscape:connector-curvature="0"
     id="stool_08"
     d="m 157.75041,270.69118 h 20.37489 v 20.354 h -20.37489 z"
     inkscape:label="#stool_12-3" />
  <path
     style="fill:#f1c232;fill-rule:evenodd"
     inkscape:connector-curvature="0"
     id="stool_09"
     d="m 42.815572,156.79744 h 20.37487 v 20.35401 h -20.37487 z" />
  <path
     style="fill:#f1c232;fill-rule:evenodd;stroke:none;stroke-linecap:square;stroke-miterlimit:10"
     inkscape:connector-curvature="0"
     id="stool_10"
     d="m 217.50092,186.19191 h 20.37489 v 20.354 h -20.37489 z"
     inkscape:label="#stool_10"
     inkscape:transform-center-x="120.5617"
     inkscape:transform-center-y="96.166518" />
  <path
     style="fill:#f1c232;fill-rule:evenodd;stroke:none;stroke-linecap:square;stroke-miterlimit:10"
     inkscape:connector-curvature="0"
     id="stool_11"
     d="m 158.31255,156.57774 h 20.37489 v 20.354 h -20.37489 z"
     inkscape:label="" />
  <path
     style="fill:#f1c232;fill-rule:evenodd"
     inkscape:connector-curvature="0"
     id="stool_12"
     d="m 99.112487,215.55564 h 20.374883 v 20.354 H 99.112487 Z" />
  <path
     style="fill:#f1c232;fill-rule:evenodd;stroke:none;stroke-linecap:square;stroke-miterlimit:10"
     inkscape:connector-curvature="0"
     id="stool_13"
     d="m 245.07809,215.18329 h 20.37489 v 20.354 h -20.37489 z"
     inkscape:label="#stool_13"
     inkscape:transform-center-x="120.5617"
     inkscape:transform-center-y="96.166518" />
  <path
     style="fill:#f1c232;fill-rule:evenodd"
     inkscape:connector-curvature="0"
     id="stool_14"
     d="m 300.3742,235.91082 h 20.37485 v 20.35401 H 300.3742 Z" />
  <path
     style="fill:#f1c232;fill-rule:evenodd"
     inkscape:connector-curvature="0"
     id="stool_15"
     d="m 49.525532,285.83484 h 20.37486 v 20.35402 h -20.37486 z" />
  <path
     style="fill:#f1c232;fill-rule:evenodd;stroke:none;stroke-linecap:square;stroke-miterlimit:10"
     inkscape:connector-curvature="0"
     id="stool_16"
     d="m 216.81256,262.07773 h 20.37485 v 20.35401 h -20.37485 z"
     inkscape:label="" />
  <path
     style="fill:#f1c232;fill-rule:evenodd"
     inkscape:connector-curvature="0"
     id="stool_17"
     d="m 303.65954,303.24266 h 20.37489 v 20.35402 h -20.37489 z" />
  <path
     style="fill:#f1c232;fill-rule:evenodd;stroke:none;stroke-linecap:square;stroke-miterlimit:10"
     inkscape:connector-curvature="0"
     id="stool_18"
     d="m 187.81254,98.077736 h 20.37489 v 20.354014 h -20.37489 z"
     inkscape:label="" />
  <path
     style="fill:#f1c232;fill-rule:evenodd;stroke:none;stroke-linecap:square;stroke-miterlimit:10"
     inkscape:connector-curvature="0"
     id="stool_19"
     d="m 274.81254,156.07774 h 20.37489 v 20.354 h -20.37489 z"
     inkscape:label=""
     inkscape:transform-center-x="120.5617"
     inkscape:transform-center-y="96.166518" />
  <path
     inkscape:label="#path87"
     style="fill:#000000;fill-rule:evenodd"
     inkscape:connector-curvature="0"
     id="pillar_top"
     d="m 153.47341,5.61205 h 29.53003 v 29.53001 h -29.53003 z" />
  <path
     inkscape:label="#path89"
     style="fill:#000000;fill-rule:evenodd"
     inkscape:connector-curvature="0"
     id="pillar_right"
     d="m 301.24944,152.2072 h 29.53002 v 29.53002 h -29.53002 z" />
  <path
     inkscape:label="#path91"
     style="fill:#000000;fill-rule:evenodd"
     inkscape:connector-curvature="0"
     id="pillar_bottom"
     d="m 153.46646,299.10825 h 29.53003 v 29.52999 h -29.53003 z" />
  <path
     inkscape:label="#path93"
     style="fill:#000000;fill-rule:evenodd"
     inkscape:connector-curvature="0"
     id="pillar_left"
     d="M 5.8241422,152.20894 H 35.354152 v 29.53002 H 5.8241422 Z" />
  <path
     inkscape:label="#path3336"
     sodipodi:nodetypes="ccccc"
     inkscape:connector-curvature="0"
     id="wall_ext_top"
     d="M 5.5932872,5.59067 V 0.00321 H 330.88748 v 5.58746 z"
     style="fill:#000000;fill-opacity:1;stroke:none;stroke-width:1px;stroke-linecap:butt;stroke-linejoin:miter;stroke-opacity:1" />
  <path
     inkscape:label="#path3336"
     sodipodi:nodetypes="ccccc"
     inkscape:connector-curvature="0"
     id="wall_ext_bottom"
     d="m 5.5932872,334.24295 v -5.58746 H 330.88748 v 5.58746 z"
     style="fill:#000000;fill-opacity:1;stroke:none;stroke-width:1px;stroke-linecap:butt;stroke-linejoin:miter;stroke-miterlimit:10;stroke-opacity:1" />
  <path
     inkscape:label="#path3336-6-5"
     sodipodi:nodetypes="ccccc"
     inkscape:connector-curvature="0"
     id="wall_ext_left"
     d="M 0,334.24627 H 5.5863282 V 0 H 0 Z"
     style="fill:#000000;fill-opacity:1;stroke:none;stroke-width:1px;stroke-linecap:butt;stroke-linejoin:miter;stroke-opacity:1" />
  <path
     inkscape:label="#path3336-6-5"
     sodipodi:nodetypes="ccccc"
     inkscape:connector-curvature="0"
     id="wall_ext_right"
     d="m 330.89651,334.25472 h 5.58633 V 0.00845 h -5.58633 z"
     style="fill:#000000;fill-opacity:1;stroke:none;stroke-width:1px;stroke-linecap:butt;stroke-linejoin:miter;stroke-miterlimit:10;stroke-opacity:1" />
  <path
     sodipodi:type="star"
     style="fill:#6d9eeb;fill-opacity:1;stroke:none;stroke-width:1;stroke-linecap:square;stroke-miterlimit:10;stroke-opacity:1"
     id="robot_01"
     sodipodi:sides="16"
     sodipodi:cx="138.28123"
     sodipodi:cy="166.911"
     sodipodi:r1="9.48102"
     sodipodi:r2="9.2988453"
     sodipodi:arg1="-0.10272987"
     sodipodi:arg2="0.093619673"
     inkscape:flatsided="true"
     inkscape:rounded="0"
     inkscape:randomized="0"
     d="m 147.71227,165.93872 -0.34582,3.68311 -1.72897,3.27041 -2.84888,2.35982 -3.53509,1.08997 -3.68311,-0.34582 -3.27041,-1.72897 -2.35982,-2.84888 -1.08997,-3.53509 0.34582,-3.68311 1.72897,-3.27041 2.84888,-2.35982 3.53509,-1.08997 3.68311,0.34582 3.27041,1.72897 2.35982,2.84888 z"
     inkscape:label="#path4172"
     transform="rotate(-90,138.49148,166.54449)" />
  <path
     inkscape:label="#path4217"
     sodipodi:nodetypes="cc"
     inkscape:connector-curvature="0"
     id="robot_01_dir"
     d="m 139.2625,166.79892 h 8.81323"
     style="fill:none;stroke:#1155cc;stroke-width:3.5999999;stroke-linecap:butt;stroke-linejoin:miter;stroke-miterlimit:10;stroke-dasharray:none;stroke-opacity:1" />
  <path
     sodipodi:type="star"
     style="fill:#6d9eeb;fill-opacity:1;stroke:none;stroke-width:1;stroke-linecap:square;stroke-miterlimit:10;stroke-opacity:1"
     id="robot_02"
     sodipodi:sides="16"
     sodipodi:cx="168.23816"
     sodipodi:cy="137.59396"
     sodipodi:r1="9.48102"
     sodipodi:r2="9.2988453"
     sodipodi:arg1="-0.10272987"
     sodipodi:arg2="0.093619673"
     inkscape:flatsided="true"
     inkscape:rounded="0"
     inkscape:randomized="0"
     d="m 177.66919,136.62169 -0.34582,3.68311 -1.72896,3.27041 -2.84889,2.35982 -3.53509,1.08997 -3.68311,-0.34582 -3.27041,-1.72897 -2.35982,-2.84888 -1.08997,-3.53509 0.34583,-3.68312 1.72896,-3.27041 2.84889,-2.35981 3.53509,-1.08997 3.68311,0.34582 3.27041,1.72896 2.35982,2.84889 z"
     inkscape:label="#path4172" />
  <path
     inkscape:label="#path4217"
     sodipodi:nodetypes="cc"
     inkscape:connector-curvature="0"
     id="robot_02_dir"
     d="m 168.19397,137.99847 v 8.81323"
     style="fill:none;stroke:#1155cc;stroke-width:3.5999999;stroke-linecap:butt;stroke-linejoin:miter;stroke-miterlimit:10;stroke-dasharray:none;stroke-opacity:1" />
  <path
     inkscape:label="#path19-3"
     id="goal_01"
     d="m 247.07594,166.75474 v 0 c 0,-5.13744 4.16472,-9.30215 9.30216,-9.30215 v 0 c 2.4671,0 4.83312,0.98003 6.57763,2.72452 1.7445,1.7445 2.72454,4.11055 2.72454,6.57763 v 0 c 0,5.13744 -4.16473,9.30215 -9.30217,9.30215 v 0 c -5.13744,0 -9.30216,-4.16471 -9.30216,-9.30215 z"
     style="fill:none;fill-rule:evenodd;stroke:#1155cc;stroke-width:3.5999999;stroke-linecap:square;stroke-miterlimit:10;stroke-dasharray:none;stroke-opacity:1"
     inkscape:connector-curvature="0" />
  <path
     inkscape:label="#path4217"
     sodipodi:nodetypes="cc"
     inkscape:connector-curvature="0"
     id="goal_01_dir"
     d="m 257.02739,166.93596 h 9.0242"
     style="fill:none;stroke:#1155cc;stroke-width:3.5999999;stroke-linecap:butt;stroke-linejoin:miter;stroke-miterlimit:10;stroke-dasharray:none;stroke-opacity:1" />
  <path
     inkscape:label="#path19-3"
     id="goal_02"
     d="m 167.93786,245.81168 v 0 c 5.13744,0 9.30215,4.16472 9.30215,9.30216 v 0 c 0,2.4671 -0.98003,4.83312 -2.72452,6.57763 -1.7445,1.7445 -4.11055,2.72454 -6.57763,2.72454 v 0 c -5.13744,0 -9.30215,-4.16473 -9.30215,-9.30217 v 0 c 0,-5.13744 4.16471,-9.30216 9.30215,-9.30216 z"
     style="fill:none;fill-rule:evenodd;stroke:#1155cc;stroke-width:3.5999999;stroke-linecap:square;stroke-miterlimit:10;stroke-dasharray:none;stroke-opacity:1"
     inkscape:connector-curvature="0" />
  <path
     inkscape:label="#path4217"
     sodipodi:nodetypes="cc"
     inkscape:connector-curvature="0"
     id="goal_02_dir"
     d="m 167.75664,255.76313 v 9.0242"
     style="fill:none;stroke:#1155cc;stroke-width:3.5999999;stroke-linecap:butt;stroke-linejoin:miter;stroke-miterlimit:10;stroke-dasharray:none;stroke-opacity:1" />
  <path
     d="M43.571971 256.08612C43.571971 256.08612 43.917793 252.40301 43.917793 252.40301C43.917793 252.40301 45.646757 249.1326 45.646757 249.1326C45.646757 249.1326 48.495643 246.77278 48.495643 246.77278C48.495643 246.77278 52.030734 245.68281 52.030734 245.68281C52.030734 245.68281 55.713845 246.02863 55.713845 246.02863C55.713845 246.02863 58.984255 247.7576 58.984255 247.7576C58.984255 247.7576 61.344074 250.60648 61.344074 250.60648C61.344074 250.60648 62.434041 254.14157 62.434041 254.14157C62.434041 254.14157 62.088219 257.82468 62.088219 257.82468C62.088219 257.82468 60.359255 261.09509 60.359255 261.09509C60.359255 261.09509 57.510369 263.45491 57.510369 263.45491C57.510369 263.45491 53.975278 264.54488 53.975278 264.54488C53.975278 264.54488 50.292167 264.19906 50.292167 264.19906C50.292167 264.19906 47.021757 262.47009 47.021757 262.47009C47.021757 262.47009 44.661938 259.62121 44.661938 259.62121C44.661938 259.62121 43.571971 256.08612 43.571971 256.08612"
     id="robot_04"
     style="stroke-opacity:1;fill-opacity:1;stroke:none;stroke-linecap:square;stroke-miterlimit:10;stroke-width:1.0;fill:#6d9eeb" />
  <path
     inkscape:label="#path4217"
     sodipodi:nodetypes="cc"
     inkscape:connector-curvature="0"
     id="robot_04_dir"
     d="M 53.04719,254.70933 V 245.8961"
     style="fill:none;stroke:#1155cc;stroke-width:3.5999999;stroke-linecap:butt;stroke-linejoin:miter;stroke-miterlimit:10;stroke-dasharray:none;stroke-opacity:1" />
  <path
     d="M62.434041 77.861751C62.434041 77.861751 62.088219 81.544862 62.088219 81.544862C62.088219 81.544862 60.359255 84.815272 60.359255 84.815272C60.359255 84.815272 57.510369 87.175091 57.510369 87.175091C57.510369 87.175091 53.975278 88.265058 53.975278 88.265058C53.975278 88.265058 50.292167 87.919235 50.292167 87.919235C50.292167 87.919235 47.021757 86.190271 47.021757 86.190271C47.021757 86.190271 44.661938 83.341385 44.661938 83.341385C44.661938 83.341385 43.571971 79.806294 43.571971 79.806294C43.571971 79.806294 43.917793 76.123183 43.917793 76.123183C43.917793 76.123183 45.646757 72.852773 45.646757 72.852773C45.646757 72.852773 48.495643 70.492954 48.495643 70.492954C48.495643 70.492954 52.030734 69.402987 52.030734 69.402987C52.030734 69.402987 55.713845 69.74881 55.713845 69.74881C55.713845 69.74881 58.984255 71.477774 58.984255 71.477774C58.984255 71.477774 61.344074 74.32666 61.344074 74.32666C61.344074 74.32666 62.434041 77.861751 62.434041 77.861751"
     id="robot_03"
     style="stroke-opacity:1;fill-opacity:1;stroke:none;stroke-linecap:square;stroke-miterlimit:10;stroke-width:1.0;fill:#6d9eeb" />
  <path
     inkscape:label="#path4217"
     sodipodi:nodetypes="cc"
     inkscape:connector-curvature="0"
     id="robot_03_dir"
     d="m 52.958811,79.238531 v 8.81323"
     style="fill:none;stroke:#1155cc;stroke-width:3.5999999;stroke-linecap:butt;stroke-linejoin:miter;stroke-miterlimit:10;stroke-dasharray:none;stroke-opacity:1" />
  <path
     style="stroke-opacity:1;fill-rule:evenodd;stroke:#1155cc;stroke-linecap:square;stroke-miterlimit:10;stroke-dasharray:none;stroke-width:3.5999999;fill:none"
     d="M53.003007 117.51492C53.003007 117.51492 53.003007 117.51492 53.003007 117.51492C47.865567 117.51492 43.700857 113.3502 43.700857 108.21276C43.700857 108.21276 43.700857 108.21276 43.700857 108.21276C43.700857 105.74566 44.680887 103.37964 46.425377 101.63513C48.169877 99.89063 50.535927 98.91059 53.003007 98.91059C53.003007 98.91059 53.003007 98.91059 53.003007 98.91059C58.140447 98.91059 62.305157 103.07532 62.305157 108.21276C62.305157 108.21276 62.305157 108.21276 62.305157 108.21276C62.305157 113.3502 58.140447 117.51492 53.003007 117.51492C53.003007 117.51492 53.003007 117.51492 53.003007 117.51492"
     id="goal_04" />
  <path
     style="stroke-linejoin:miter;stroke-opacity:1;stroke:#1155cc;stroke-linecap:butt;stroke-miterlimit:10;stroke-dasharray:none;stroke-width:3.5999999;fill:none"
     d="M53.184227 107.56347C53.184227 107.56347 53.184227 98.53927 53.184227 98.53927"
     id="goal_04_dir" />
  <path
     style="stroke-opacity:1;fill-rule:evenodd;stroke:#1155cc;stroke-linecap:square;stroke-miterlimit:10;stroke-dasharray:none;stroke-width:3.5999999;fill:none"
     d="M53.003007 216.43047C53.003007 216.43047 53.003007 216.43047 53.003007 216.43047C58.140447 216.43047 62.305157 220.59519 62.305157 225.73264C62.305157 225.73264 62.305157 225.73264 62.305157 225.73264C62.305157 228.19973 61.325127 230.56576 59.580637 232.31027C57.836137 234.05476 55.470087 235.0348 53.003007 235.0348C53.003007 235.0348 53.003007 235.0348 53.003007 235.0348C47.865567 235.0348 43.700857 230.87008 43.700857 225.73264C43.700857 225.73264 43.700857 225.73264 43.700857 225.73264C43.700857 220.5952 47.865567 216.43047 53.003007 216.43047C53.003007 216.43047 53.003007 216.43047 53.003007 216.43047"
     id="goal_03" />
  <path
     style="stroke-linejoin:miter;stroke-opacity:1;stroke:#1155cc;stroke-linecap:butt;stroke-miterlimit:10;stroke-dasharray:none;stroke-width:3.5999999;fill:none"
     d="M52.821787 226.38192C52.821787 226.38192 52.821787 235.40612 52.821787 235.40612"
     id="goal_03_dir" />
</svg>
