{
    "discretization_data": {
        "cost_circumscribed": 20, 
        "cost_inscribed": 50, 
        "cost_lethal": 100, 
        "cost_possibly_nonfree": 10, 
        "inflation_radius": 0.0, 
        "res": 0.07
    }, 
    "files": {
        "geometry_file": "03_big_crossing.svg"
    }, 
    "geometry_scale": 0.1, 
    "things": {
        "entities": [
            {
                "force_pushes_only": true, 
                "geometry": {
                    "from": "file", 
                    "id": "robot_01", 
                    "orientation_id": "robot_01_dir"
                }, 
                "movable_whitelist": [
                    "chair"
                ], 
                "name": "robot_01", 
                "push_only_list": [
                    "chair"
                ], 
                "sensors": [
                    {
                        "type": "omniscient"
                    }
                ], 
                "type": "robot"
            }, 
            {
                "geometry": {
                    "from": "file", 
                    "id": "wall_01"
                }, 
                "name": "Top Left wall", 
                "type": "wall"
            }, 
            {
                "geometry": {
                    "from": "file", 
                    "id": "wall_02"
                }, 
                "name": "Top right wall", 
                "type": "wall"
            }, 
            {
                "geometry": {
                    "from": "file", 
                    "id": "wall_03"
                }, 
                "name": "Bottom right wall", 
                "type": "wall"
            }, 
            {
                "geometry": {
                    "from": "file", 
                    "id": "wall_04"
                }, 
                "name": "Bottom left wall", 
                "type": "wall"
            }
        ], 
        "zones": {
            "goals": [
                {
                    "geometry": {
                        "from": "file", 
                        "id": "goal_01", 
                        "orientation_id": "goal_01_dir"
                    }, 
                    "name": "goal_01"
                }
            ]
        }
    }
}