{
    "discretization_data": {
        "cost_circumscribed": 20, 
        "cost_inscribed": 50, 
        "cost_lethal": 100, 
        "cost_possibly_nonfree": 10, 
        "inflation_radius": 0.35, 
        "res": 0.1
    }, 
    "files": {
        "geometry_file": "./04_hotel.svg"
    }, 
    "geometry_scale": 0.2, 
    "things": {
        "entities": [
            {
                "force_pushes_only": true, 
                "geometry": {
                    "from": "file", 
                    "id": "robot_01"
                }, 
                "movable_whitelist": [
                    "chair"
                ], 
                "name": "robot_01", 
                "push_only_list": [
                    "chair"
                ], 
                "sensors": {
                    "perfect_g_fov": {
                        "max_radius": 2.4, 
                        "min_radius": 0.0, 
                        "opening_angle": 180.0
                    }, 
                    "perfect_s_fov": {
                        "max_radius": 2.4, 
                        "min_radius": 0.0, 
                        "opening_angle": 180.0
                    }
                }, 
                "type": "robot"
            }, 
            {
                "geometry": {
                    "from": "file", 
                    "id": "wall_02"
                }, 
                "name": "Border wall1", 
                "type": "wall"
            }, 
            {
                "geometry": {
                    "from": "file", 
                    "id": "wall_03"
                }, 
                "name": "Border wall2", 
                "type": "wall"
            }, 
            {
                "geometry": {
                    "from": "file", 
                    "id": "wall_01"
                }, 
                "name": "Center wall", 
                "type": "wall"
            }, 
            {
                "geometry": {
                    "from": "file", 
                    "id": "table_01"
                }, 
                "name": "Room 1 table1", 
                "type": "table"
            }, 
            {
                "geometry": {
                    "from": "file", 
                    "id": "table_02"
                }, 
                "name": "Room 2 table2", 
                "type": "table"
            }, 
            {
                "geometry": {
                    "from": "file", 
                    "id": "table_03"
                }, 
                "name": "Room 3 table3", 
                "type": "table"
            }, 
            {
                "geometry": {
                    "from": "file", 
                    "id": "cabinet_01"
                }, 
                "name": "Room 1 cabinet1", 
                "type": "cabinet"
            }, 
            {
                "geometry": {
                    "from": "file", 
                    "id": "cabinet_02"
                }, 
                "name": "Room 2 cabinet2", 
                "type": "cabinet"
            }, 
            {
                "geometry": {
                    "from": "file", 
                    "id": "cabinet_03"
                }, 
                "name": "Room 3 cabinet3", 
                "type": "cabinet"
            }, 
            {
                "geometry": {
                    "from": "file", 
                    "id": "bed_01"
                }, 
                "name": "Room 1 bed1", 
                "type": "bed"
            }, 
            {
                "geometry": {
                    "from": "file", 
                    "id": "bed_02"
                }, 
                "name": "Room 2 bed2", 
                "type": "bed"
            }, 
            {
                "geometry": {
                    "from": "file", 
                    "id": "bed_03"
                }, 
                "name": "Room 3 bed3", 
                "type": "bed"
            }, 
            {
                "geometry": {
                    "from": "file", 
                    "id": "chair_01"
                }, 
                "name": "Room 1 chair1", 
                "type": "chair"
            }, 
            {
                "geometry": {
                    "from": "file", 
                    "id": "chair_21"
                }, 
                "name": "Room 2 chair21", 
                "type": "chair"
            }, 
            {
                "geometry": {
                    "from": "file", 
                    "id": "chair_22"
                }, 
                "name": "Room 2 chair22", 
                "type": "chair"
            }, 
            {
                "geometry": {
                    "from": "file", 
                    "id": "chair_03"
                }, 
                "name": "Room 3 chair03", 
                "type": "chair"
            }
        ], 
        "zones": {
            "goals": [
                {
                    "geometry": {
                        "from": "file", 
                        "id": "goal_01"
                    }
                }
            ]
        }
    }
}